{
    "id": 2,
    "name": "脐橙",
    "images": [
        {
            "url": "./images/chengzi1.jpg",
            "id": 0
        },
        {
            "url": "./images/chengzi2.jpg",
            "id": 1
        }
    ],
    "title": "西班牙脐橙8只/箱约4.5斤果粒直径约80mm免费送剥橙器一个",
    "description": "来自欧洲脐橙出口大国的西班牙脐橙，果实硕大，果形一般呈椭圆形或倒卵形，果皮橙红，皮薄汁多无籽，充盈的果肉里散发出带有地中海风情的淡淡香气。",
    "price": 39.00,
    "saledcount": 25,
    "inventory": 35,
    "details": [
        {
            "imageUrl": "./images/cz1.jpg"
        },
        {
            "imageUrl": "./images/cz2.jpg"
        },
        {
            "imageUrl": "./images/cz3.jpg"
        },
        {
            "imageUrl": "./images/wuliu.jpg"
        }
    ],
    "evaluations": {
        "count": 1,
        "minute": []
    }
}